   9
sisl-version=1 cell= 4.91362818 0.00000000 0.00000000 -2.45681409 4.25911676 0.00000000 0.00000000 0.00000000 40.51491471  nsc= 1 1 1
C   1.24821925  0.69834042  19.96344049
C   -0.00431977  1.42216414  20.16903457
C   -0.00107655  2.86171152  19.91129319
C   -1.22307118  3.54768540  19.90886186
C   3.66561597  0.69976543  19.91134357
C   2.46079167  1.41571080  19.90861869
C   2.45790126  2.83867984  19.94888589
C   1.22307509  3.55228502  19.91634101
H   0.20447126  1.30183612  21.36858471

