   9
sisl-version=1 cell= 4.91362818 0.00000000 0.00000000 -2.45681409 4.25911676 0.00000000 0.00000000 0.00000000 40.51491471  nsc= 1 1 1
C   1.23268699  0.70732494  20.16903513
C   -0.01985901  1.43113566  19.96344012
C   -0.00535368  2.84106465  19.90884974
C   -1.22734465  3.52706893  19.91135662
C   3.68131760  0.71387021  19.90863184
C   2.47651724  1.42983284  19.91127977
C   2.46217614  2.83644209  19.91634230
C   1.22734181  3.55003247  19.94888324
H   1.02383112  0.82754133  21.36858499

